Local function
Vec Object: 1 MPI processes
  type: seq
0
0
-1
0.25
0.5
-0.5
1
2
0
0.25
0
-0.5
0.5
0
0
1.25
1
0.5
1
0
0
1.25
-0.5
0.5
2
0
1
0.125
0
-0.5
0.625
-0.25
0
0.625
0.75
0
1.125
0
0.5
0.03125
0
0.15625
-0.0625
0.0625
0
0.78125
-0.1875
0.5625
0
0.40625
-0.125
0.28125
0
0.3125
-0.125
0.78125
1.3125
1.0625
1.5
0.90625
0.875
0.40625
0.625
0.5625
1.125
1.15625
0.4375
1.5625
0.5
1.53125
0
0.78125
0
0.8125
0.375
0.90625
-0.375
1.0625
-0.375
0.3125
0.25
0.15625
0.1875
0.0625
0.125
0.8125
-0.25
0.53125
-0.1875
0.53125
0.3125
1.15625
-0.3125
1.5625
-0.375
Initial guess
Vec Object: 1 MPI processes
  type: seq
-1
-0.5
0
-0.5
0.5
0
0
0.5
0
0.5
1
0.125
0
-0.5
0.625
-0.25
0
0.625
0.75
0
1.125
0
0.5
0.03125
0
0.15625
-0.0625
0.78125
-0.1875
0.40625
-0.125
0.28125
0
0.3125
-0.125
0.78125
1.3125
0.90625
0.875
0.40625
0.625
1.15625
0.4375
1.53125
0
0.78125
0
0.8125
0.375
0.90625
-0.375
0.3125
0.25
0.15625
0.1875
0.8125
-0.25
0.53125
-0.1875
0.53125
0.3125
1.15625
-0.3125
L_2 Error: 4.06001e-13
Residual:
Vec Object: 1 MPI processes
  type: seq
0
0
0
0
0
0
0
0
0
0
0
0
0
0
0
0
0
0
0
0
0
0
0
0
0
0
0
0
0
0
0
0
0
0
0
0
0
0
0
0
0
0
0
0
0
0
0
0
0
0
0
0
0
0
0
0
0
0
0
0
0
0
0
0
0
0
0
0
0
0
0
0
0
0
0
0
0
0
0
0
0
0
0
0
0
0
0
0
0
0
0
0
0
0
0
Initial Residual
Vec Object: 1 MPI processes
  type: seq
0
0
0
0
0
0
0
0
0
0
0
0
0
0
0
0
0
0
0
0
0
0
0
0
0
0
0
0
0
0
0
0
0
0
0
0
0
0
0
0
0
0
0
0
0
0
0
0
0
0
0
0
0
0
0
0
0
0
0
0
0
0
0
L_2 Residual: 0
Jacobian:
Mat Object: 1 MPI processes
  type: seqaij
row 0: (0, 0)  (1, 0)  (3, 0)  (11, 0)  (12, 0)  (13, 0)  (23, 0.0833333)  (24, 0.0833333)  (25, 0.0416667)  (26, 0.0416667)  (53, 0.0416667)  (54, 0.0416667) 
row 1: (0, 0)  (1, 0)  (2, 0)  (4, 0)  (5, 0)  (6, 0)  (11, 0)  (12, 0)  (13, 0)  (17, 0)  (18, 0)  (19, 0)  (23, -0.0416667)  (24, 0.0416667)  (31, -0.0416667)  (32, 0.0416667)  (35, 0.0416667)  (36, 0.0416667)  (39, 0.0833333)  (40, 0.0833333)  (51, 0)  (52, 0.0833333)  (53, -0.0833333)  (54, 0.0833333)  (59, 0.0416667)  (60, 0.0416667) 
row 2: (1, 0)  (2, 0)  (7, 0)  (17, 0)  (18, 0)  (19, 0)  (35, -0.0833333)  (36, 0.0833333)  (37, -0.0416667)  (38, 0.0416667)  (39, -0.0416667)  (40, 0.0416667) 
row 3: (0, 0)  (3, 0)  (4, 0)  (5, 0)  (6, 0)  (8, 0)  (11, 0)  (12, 0)  (13, 0)  (14, 0)  (15, 0)  (16, 0)  (23, 0.0416667)  (24, -0.0416667)  (25, 0.0833333)  (26, -0.0833333)  (27, 0.0416667)  (28, 0.0416667)  (29, 0.0833333)  (30, 0.0833333)  (31, 0.0416667)  (32, -0.0416667)  (33, 0.0833333)  (34, 0)  (57, 0.0416667)  (58, 0.0416667) 
row 4: (1, 0)  (3, 0)  (4, 4)  (5, 0)  (6, 0)  (7, 0)  (9, 0)  (11, 0.333333)  (12, 0)  (13, 0)  (14, 0.333333)  (15, 0)  (16, 0)  (17, 0.333333)  (18, 0)  (19, 0)  (20, 0.333333)  (21, 0)  (22, 0)  (25, 0)  (26, 0)  (29, 0)  (30, 0)  (31, -1.33333)  (32, 0)  (33, 0)  (34, 0)  (37, 0)  (38, 0)  (39, 0)  (40, 0)  (41, 0)  (42, 0)  (45, -1.33333)  (46, 0)  (47, 0)  (48, 0)  (49, 0)  (50, 0)  (51, 0)  (52, 0)  (53, 0)  (54, 0)  (55, 0)  (56, 0)  (57, -1.33333)  (58, 0)  (59, -1.33333)  (60, 0)  (61, 0)  (62, 0) 
row 5: (1, 0)  (3, 0)  (4, 0)  (5, 4)  (6, 0)  (7, 0)  (9, 0)  (11, 0)  (12, 0.333333)  (13, 0)  (14, 0)  (15, 0.333333)  (16, 0)  (17, 0)  (18, 0.333333)  (19, 0)  (20, 0)  (21, 0.333333)  (22, 0)  (25, 0)  (26, 0)  (29, 0)  (30, 0)  (31, 0)  (32, -1.33333)  (33, 0)  (34, 0)  (37, 0)  (38, 0)  (39, 0)  (40, 0)  (41, 0)  (42, 0)  (45, 0)  (46, -1.33333)  (47, 0)  (48, 0)  (49, 0)  (50, 0)  (51, 0)  (52, 0)  (53, 0)  (54, 0)  (55, 0)  (56, 0)  (57, 0)  (58, -1.33333)  (59, 0)  (60, -1.33333)  (61, 0)  (62, 0) 
row 6: (1, 0)  (3, 0)  (4, 0)  (5, 0)  (6, 0)  (7, 0)  (9, 0)  (11, 0)  (12, 0)  (13, 0)  (14, 0)  (15, 0)  (16, 0)  (17, 0)  (18, 0)  (19, 0)  (20, 0)  (21, 0)  (22, 0)  (25, -0.0416667)  (26, -0.0416667)  (29, -0.0416667)  (30, 0.0416667)  (31, -0.0833333)  (32, -0.0833333)  (33, -0.0833333)  (34, 0)  (37, 0.0416667)  (38, -0.0416667)  (39, 0.0416667)  (40, -0.0416667)  (41, 0.0416667)  (42, 0.0416667)  (45, 0.0833333)  (46, 0.0833333)  (47, 0.0833333)  (48, 0)  (49, -0.0416667)  (50, 0.0416667)  (51, 0)  (52, -0.0833333)  (53, -0.0416667)  (54, -0.0416667)  (55, 0)  (56, 0.0833333)  (57, -0.0833333)  (58, 0.0833333)  (59, 0.0833333)  (60, -0.0833333)  (61, 0.0416667)  (62, 0.0416667) 
row 7: (2, 0)  (4, 0)  (5, 0)  (6, 0)  (7, 0)  (10, 0)  (17, 0)  (18, 0)  (19, 0)  (20, 0)  (21, 0)  (22, 0)  (35, -0.0416667)  (36, -0.0416667)  (37, -0.0833333)  (38, -0.0833333)  (41, -0.0833333)  (42, 0.0833333)  (43, -0.0416667)  (44, 0.0416667)  (45, -0.0416667)  (46, 0.0416667)  (47, -0.0833333)  (48, 0)  (59, -0.0416667)  (60, -0.0416667) 
row 8: (3, 0)  (8, 0)  (9, 0)  (14, 0)  (15, 0)  (16, 0)  (27, 0.0833333)  (28, -0.0833333)  (29, 0.0416667)  (30, -0.0416667)  (49, 0.0416667)  (50, -0.0416667) 
row 9: (4, 0)  (5, 0)  (6, 0)  (8, 0)  (9, 0)  (10, 0)  (14, 0)  (15, 0)  (16, 0)  (20, 0)  (21, 0)  (22, 0)  (27, -0.0416667)  (28, -0.0416667)  (43, 0.0416667)  (44, -0.0416667)  (45, 0.0416667)  (46, -0.0416667)  (49, -0.0833333)  (50, -0.0833333)  (55, 0)  (56, -0.0833333)  (57, -0.0416667)  (58, -0.0416667)  (61, 0.0833333)  (62, -0.0833333) 
row 10: (7, 0)  (9, 0)  (10, 0)  (20, 0)  (21, 0)  (22, 0)  (41, -0.0416667)  (42, -0.0416667)  (43, -0.0833333)  (44, -0.0833333)  (61, -0.0416667)  (62, -0.0416667) 
row 11: (0, 0)  (1, 0)  (3, 0)  (4, 0.333333)  (5, 0)  (6, 0)  (11, 4)  (12, 0)  (13, 0)  (23, -1.33333)  (24, 0)  (25, -1.33333)  (26, 0)  (31, -1.33333)  (32, 0)  (33, 0)  (34, 0)  (51, 0)  (52, 0)  (53, -1.33333)  (54, 0) 
row 12: (0, 0)  (1, 0)  (3, 0)  (4, 0)  (5, 0.333333)  (6, 0)  (11, 0)  (12, 4)  (13, 0)  (23, 0)  (24, -1.33333)  (25, 0)  (26, -1.33333)  (31, 0)  (32, -1.33333)  (33, 0)  (34, 0)  (51, 0)  (52, 0)  (53, 0)  (54, -1.33333) 
row 13: (0, 0)  (1, 0)  (3, 0)  (4, 0)  (5, 0)  (6, 0)  (11, 0)  (12, 0)  (13, 0)  (23, -0.0833333)  (24, -0.0833333)  (25, -0.0833333)  (26, 0.0833333)  (31, 0.0833333)  (32, 0.0833333)  (33, 0)  (34, 0.0833333)  (51, 0.0833333)  (52, 0)  (53, 0.0833333)  (54, -0.0833333) 
row 14: (3, 0)  (4, 0.333333)  (5, 0)  (6, 0)  (8, 0)  (9, 0)  (14, 4)  (15, 0)  (16, 0)  (27, -1.33333)  (28, 0)  (29, -1.33333)  (30, 0)  (33, 0)  (34, 0)  (49, -1.33333)  (50, 0)  (55, 0)  (56, 0)  (57, -1.33333)  (58, 0) 
row 15: (3, 0)  (4, 0)  (5, 0.333333)  (6, 0)  (8, 0)  (9, 0)  (14, 0)  (15, 4)  (16, 0)  (27, 0)  (28, -1.33333)  (29, 0)  (30, -1.33333)  (33, 0)  (34, 0)  (49, 0)  (50, -1.33333)  (55, 0)  (56, 0)  (57, 0)  (58, -1.33333) 
row 16: (3, 0)  (4, 0)  (5, 0)  (6, 0)  (8, 0)  (9, 0)  (14, 0)  (15, 0)  (16, 0)  (27, -0.0833333)  (28, 0.0833333)  (29, -0.0833333)  (30, -0.0833333)  (33, 0)  (34, -0.0833333)  (49, 0.0833333)  (50, 0.0833333)  (55, 0.0833333)  (56, 0)  (57, 0.0833333)  (58, -0.0833333) 
row 17: (1, 0)  (2, 0)  (4, 0.333333)  (5, 0)  (6, 0)  (7, 0)  (17, 4)  (18, 0)  (19, 0)  (35, -1.33333)  (36, 0)  (37, -1.33333)  (38, 0)  (39, -1.33333)  (40, 0)  (47, 0)  (48, 0)  (51, 0)  (52, 0)  (59, -1.33333)  (60, 0) 
row 18: (1, 0)  (2, 0)  (4, 0)  (5, 0.333333)  (6, 0)  (7, 0)  (17, 0)  (18, 4)  (19, 0)  (35, 0)  (36, -1.33333)  (37, 0)  (38, -1.33333)  (39, 0)  (40, -1.33333)  (47, 0)  (48, 0)  (51, 0)  (52, 0)  (59, 0)  (60, -1.33333) 
row 19: (1, 0)  (2, 0)  (4, 0)  (5, 0)  (6, 0)  (7, 0)  (17, 0)  (18, 0)  (19, 0)  (35, 0.0833333)  (36, -0.0833333)  (37, 0.0833333)  (38, 0.0833333)  (39, -0.0833333)  (40, -0.0833333)  (47, 0)  (48, 0.0833333)  (51, -0.0833333)  (52, 0)  (59, -0.0833333)  (60, 0.0833333) 
row 20: (4, 0.333333)  (5, 0)  (6, 0)  (7, 0)  (9, 0)  (10, 0)  (20, 4)  (21, 0)  (22, 0)  (41, -1.33333)  (42, 0)  (43, -1.33333)  (44, 0)  (45, -1.33333)  (46, 0)  (47, 0)  (48, 0)  (55, 0)  (56, 0)  (61, -1.33333)  (62, 0) 
row 21: (4, 0)  (5, 0.333333)  (6, 0)  (7, 0)  (9, 0)  (10, 0)  (20, 0)  (21, 4)  (22, 0)  (41, 0)  (42, -1.33333)  (43, 0)  (44, -1.33333)  (45, 0)  (46, -1.33333)  (47, 0)  (48, 0)  (55, 0)  (56, 0)  (61, 0)  (62, -1.33333) 
row 22: (4, 0)  (5, 0)  (6, 0)  (7, 0)  (9, 0)  (10, 0)  (20, 0)  (21, 0)  (22, 0)  (41, 0.0833333)  (42, -0.0833333)  (43, 0.0833333)  (44, 0.0833333)  (45, -0.0833333)  (46, -0.0833333)  (47, 0)  (48, -0.0833333)  (55, -0.0833333)  (56, 0)  (61, -0.0833333)  (62, 0.0833333) 
row 23: (0, -0.0833333)  (1, 0.0416667)  (3, -0.0416667)  (11, -1.33333)  (12, 0)  (13, 0.0833333)  (23, 5.33333)  (24, 0)  (25, 0)  (26, 0)  (53, 0)  (54, 0) 
row 24: (0, -0.0833333)  (1, -0.0416667)  (3, 0.0416667)  (11, 0)  (12, -1.33333)  (13, 0.0833333)  (23, 0)  (24, 5.33333)  (25, 0)  (26, 0)  (53, 0)  (54, 0) 
row 25: (0, -0.0416667)  (3, -0.0833333)  (4, 0)  (5, 0)  (6, 0.0416667)  (11, -1.33333)  (12, 0)  (13, 0.0833333)  (23, 0)  (24, 0)  (25, 5.33333)  (26, 0)  (31, 0)  (32, 0)  (33, -1.33333)  (34, 0) 
row 26: (0, -0.0416667)  (3, 0.0833333)  (4, 0)  (5, 0)  (6, 0.0416667)  (11, 0)  (12, -1.33333)  (13, -0.0833333)  (23, 0)  (24, 0)  (25, 0)  (26, 5.33333)  (31, 0)  (32, 0)  (33, 0)  (34, -1.33333) 
row 27: (3, -0.0416667)  (8, -0.0833333)  (9, 0.0416667)  (14, -1.33333)  (15, 0)  (16, 0.0833333)  (27, 5.33333)  (28, 0)  (29, 0)  (30, 0)  (49, 0)  (50, 0) 
row 28: (3, -0.0416667)  (8, 0.0833333)  (9, 0.0416667)  (14, 0)  (15, -1.33333)  (16, -0.0833333)  (27, 0)  (28, 5.33333)  (29, 0)  (30, 0)  (49, 0)  (50, 0) 
row 29: (3, -0.0833333)  (4, 0)  (5, 0)  (6, 0.0416667)  (8, -0.0416667)  (14, -1.33333)  (15, 0)  (16, 0.0833333)  (27, 0)  (28, 0)  (29, 5.33333)  (30, 0)  (33, -1.33333)  (34, 0)  (57, 0)  (58, 0) 
row 30: (3, -0.0833333)  (4, 0)  (5, 0)  (6, -0.0416667)  (8, 0.0416667)  (14, 0)  (15, -1.33333)  (16, 0.0833333)  (27, 0)  (28, 0)  (29, 0)  (30, 5.33333)  (33, 0)  (34, -1.33333)  (57, 0)  (58, 0) 
row 31: (1, 0.0416667)  (3, -0.0416667)  (4, -1.33333)  (5, 0)  (6, 0.0833333)  (11, -1.33333)  (12, 0)  (13, -0.0833333)  (25, 0)  (26, 0)  (31, 5.33333)  (32, 0)  (33, -1.33333)  (34, 0)  (51, -1.33333)  (52, 0)  (53, 0)  (54, 0) 
row 32: (1, -0.0416667)  (3, 0.0416667)  (4, 0)  (5, -1.33333)  (6, 0.0833333)  (11, 0)  (12, -1.33333)  (13, -0.0833333)  (25, 0)  (26, 0)  (31, 0)  (32, 5.33333)  (33, 0)  (34, -1.33333)  (51, 0)  (52, -1.33333)  (53, 0)  (54, 0) 
row 33: (3, -0.0833333)  (4, 0)  (5, 0)  (6, 0.0833333)  (11, 0)  (12, 0)  (13, 0)  (14, 0)  (15, 0)  (16, 0)  (25, -1.33333)  (26, 0)  (29, -1.33333)  (30, 0)  (31, -1.33333)  (32, 0)  (33, 5.33333)  (34, 0)  (57, -1.33333)  (58, 0) 
row 34: (3, 0)  (4, 0)  (5, 0)  (6, 0)  (11, 0)  (12, 0)  (13, -0.0833333)  (14, 0)  (15, 0)  (16, 0.0833333)  (25, 0)  (26, -1.33333)  (29, 0)  (30, -1.33333)  (31, 0)  (32, -1.33333)  (33, 0)  (34, 5.33333)  (57, 0)  (58, -1.33333) 
row 35: (1, -0.0416667)  (2, 0.0833333)  (7, 0.0416667)  (17, -1.33333)  (18, 0)  (19, -0.0833333)  (35, 5.33333)  (36, 0)  (37, 0)  (38, 0)  (39, 0)  (40, 0) 
row 36: (1, -0.0416667)  (2, -0.0833333)  (7, 0.0416667)  (17, 0)  (18, -1.33333)  (19, 0.0833333)  (35, 0)  (36, 5.33333)  (37, 0)  (38, 0)  (39, 0)  (40, 0) 
row 37: (2, 0.0416667)  (4, 0)  (5, 0)  (6, -0.0416667)  (7, 0.0833333)  (17, -1.33333)  (18, 0)  (19, -0.0833333)  (35, 0)  (36, 0)  (37, 5.33333)  (38, 0)  (47, -1.33333)  (48, 0)  (59, 0)  (60, 0) 
row 38: (2, -0.0416667)  (4, 0)  (5, 0)  (6, 0.0416667)  (7, 0.0833333)  (17, 0)  (18, -1.33333)  (19, -0.0833333)  (35, 0)  (36, 0)  (37, 0)  (38, 5.33333)  (47, 0)  (48, -1.33333)  (59, 0)  (60, 0) 
row 39: (1, -0.0833333)  (2, 0.0416667)  (4, 0)  (5, 0)  (6, -0.0416667)  (17, -1.33333)  (18, 0)  (19, 0.0833333)  (35, 0)  (36, 0)  (39, 5.33333)  (40, 0)  (51, -1.33333)  (52, 0)  (59, 0)  (60, 0) 
row 40: (1, -0.0833333)  (2, -0.0416667)  (4, 0)  (5, 0)  (6, 0.0416667)  (17, 0)  (18, -1.33333)  (19, 0.0833333)  (35, 0)  (36, 0)  (39, 0)  (40, 5.33333)  (51, 0)  (52, -1.33333)  (59, 0)  (60, 0) 
row 41: (4, 0)  (5, 0)  (6, -0.0416667)  (7, 0.0833333)  (10, 0.0416667)  (20, -1.33333)  (21, 0)  (22, -0.0833333)  (41, 5.33333)  (42, 0)  (43, 0)  (44, 0)  (45, 0)  (46, 0)  (47, -1.33333)  (48, 0) 
row 42: (4, 0)  (5, 0)  (6, -0.0416667)  (7, -0.0833333)  (10, 0.0416667)  (20, 0)  (21, -1.33333)  (22, 0.0833333)  (41, 0)  (42, 5.33333)  (43, 0)  (44, 0)  (45, 0)  (46, 0)  (47, 0)  (48, -1.33333) 
row 43: (7, 0.0416667)  (9, -0.0416667)  (10, 0.0833333)  (20, -1.33333)  (21, 0)  (22, -0.0833333)  (41, 0)  (42, 0)  (43, 5.33333)  (44, 0)  (61, 0)  (62, 0) 
row 44: (7, -0.0416667)  (9, 0.0416667)  (10, 0.0833333)  (20, 0)  (21, -1.33333)  (22, -0.0833333)  (41, 0)  (42, 0)  (43, 0)  (44, 5.33333)  (61, 0)  (62, 0) 
row 45: (4, -1.33333)  (5, 0)  (6, -0.0833333)  (7, 0.0416667)  (9, -0.0416667)  (20, -1.33333)  (21, 0)  (22, 0.0833333)  (41, 0)  (42, 0)  (45, 5.33333)  (46, 0)  (47, -1.33333)  (48, 0)  (55, -1.33333)  (56, 0)  (61, 0)  (62, 0) 
row 46: (4, 0)  (5, -1.33333)  (6, -0.0833333)  (7, -0.0416667)  (9, 0.0416667)  (20, 0)  (21, -1.33333)  (22, 0.0833333)  (41, 0)  (42, 0)  (45, 0)  (46, 5.33333)  (47, 0)  (48, -1.33333)  (55, 0)  (56, -1.33333)  (61, 0)  (62, 0) 
row 47: (4, 0)  (5, 0)  (6, -0.0833333)  (7, 0.0833333)  (17, 0)  (18, 0)  (19, 0)  (20, 0)  (21, 0)  (22, 0)  (37, -1.33333)  (38, 0)  (41, -1.33333)  (42, 0)  (45, -1.33333)  (46, 0)  (47, 5.33333)  (48, 0)  (59, -1.33333)  (60, 0) 
row 48: (4, 0)  (5, 0)  (6, 0)  (7, 0)  (17, 0)  (18, 0)  (19, -0.0833333)  (20, 0)  (21, 0)  (22, 0.0833333)  (37, 0)  (38, -1.33333)  (41, 0)  (42, -1.33333)  (45, 0)  (46, -1.33333)  (47, 0)  (48, 5.33333)  (59, 0)  (60, -1.33333) 
row 49: (4, 0)  (5, 0)  (6, 0.0416667)  (8, -0.0416667)  (9, 0.0833333)  (14, -1.33333)  (15, 0)  (16, -0.0833333)  (27, 0)  (28, 0)  (49, 5.33333)  (50, 0)  (55, -1.33333)  (56, 0)  (57, 0)  (58, 0) 
row 50: (4, 0)  (5, 0)  (6, -0.0416667)  (8, 0.0416667)  (9, 0.0833333)  (14, 0)  (15, -1.33333)  (16, -0.0833333)  (27, 0)  (28, 0)  (49, 0)  (50, 5.33333)  (55, 0)  (56, -1.33333)  (57, 0)  (58, 0) 
row 51: (1, 0)  (4, 0)  (5, 0)  (6, 0)  (11, 0)  (12, 0)  (13, -0.0833333)  (17, 0)  (18, 0)  (19, 0.0833333)  (31, -1.33333)  (32, 0)  (39, -1.33333)  (40, 0)  (51, 5.33333)  (52, 0)  (53, -1.33333)  (54, 0)  (59, -1.33333)  (60, 0) 
row 52: (1, -0.0833333)  (4, 0)  (5, 0)  (6, 0.0833333)  (11, 0)  (12, 0)  (13, 0)  (17, 0)  (18, 0)  (19, 0)  (31, 0)  (32, -1.33333)  (39, 0)  (40, -1.33333)  (51, 0)  (52, 5.33333)  (53, 0)  (54, -1.33333)  (59, 0)  (60, -1.33333) 
row 53: (0, -0.0416667)  (1, 0.0833333)  (4, 0)  (5, 0)  (6, 0.0416667)  (11, -1.33333)  (12, 0)  (13, -0.0833333)  (23, 0)  (24, 0)  (31, 0)  (32, 0)  (51, -1.33333)  (52, 0)  (53, 5.33333)  (54, 0) 
row 54: (0, -0.0416667)  (1, -0.0833333)  (4, 0)  (5, 0)  (6, 0.0416667)  (11, 0)  (12, -1.33333)  (13, 0.0833333)  (23, 0)  (24, 0)  (31, 0)  (32, 0)  (51, 0)  (52, -1.33333)  (53, 0)  (54, 5.33333) 
row 55: (4, 0)  (5, 0)  (6, 0)  (9, 0)  (14, 0)  (15, 0)  (16, -0.0833333)  (20, 0)  (21, 0)  (22, 0.0833333)  (45, -1.33333)  (46, 0)  (49, -1.33333)  (50, 0)  (55, 5.33333)  (56, 0)  (57, -1.33333)  (58, 0)  (61, -1.33333)  (62, 0) 
row 56: (4, 0)  (5, 0)  (6, -0.0833333)  (9, 0.0833333)  (14, 0)  (15, 0)  (16, 0)  (20, 0)  (21, 0)  (22, 0)  (45, 0)  (46, -1.33333)  (49, 0)  (50, -1.33333)  (55, 0)  (56, 5.33333)  (57, 0)  (58, -1.33333)  (61, 0)  (62, -1.33333) 
row 57: (3, -0.0416667)  (4, -1.33333)  (5, 0)  (6, 0.0833333)  (9, 0.0416667)  (14, -1.33333)  (15, 0)  (16, -0.0833333)  (29, 0)  (30, 0)  (33, -1.33333)  (34, 0)  (49, 0)  (50, 0)  (55, -1.33333)  (56, 0)  (57, 5.33333)  (58, 0) 
row 58: (3, -0.0416667)  (4, 0)  (5, -1.33333)  (6, -0.0833333)  (9, 0.0416667)  (14, 0)  (15, -1.33333)  (16, 0.0833333)  (29, 0)  (30, 0)  (33, 0)  (34, -1.33333)  (49, 0)  (50, 0)  (55, 0)  (56, -1.33333)  (57, 0)  (58, 5.33333) 
row 59: (1, -0.0416667)  (4, -1.33333)  (5, 0)  (6, -0.0833333)  (7, 0.0416667)  (17, -1.33333)  (18, 0)  (19, 0.0833333)  (37, 0)  (38, 0)  (39, 0)  (40, 0)  (47, -1.33333)  (48, 0)  (51, -1.33333)  (52, 0)  (59, 5.33333)  (60, 0) 
row 60: (1, -0.0416667)  (4, 0)  (5, -1.33333)  (6, 0.0833333)  (7, 0.0416667)  (17, 0)  (18, -1.33333)  (19, -0.0833333)  (37, 0)  (38, 0)  (39, 0)  (40, 0)  (47, 0)  (48, -1.33333)  (51, 0)  (52, -1.33333)  (59, 0)  (60, 5.33333) 
row 61: (4, 0)  (5, 0)  (6, -0.0416667)  (9, -0.0833333)  (10, 0.0416667)  (20, -1.33333)  (21, 0)  (22, 0.0833333)  (43, 0)  (44, 0)  (45, 0)  (46, 0)  (55, -1.33333)  (56, 0)  (61, 5.33333)  (62, 0) 
row 62: (4, 0)  (5, 0)  (6, -0.0416667)  (9, 0.0833333)  (10, 0.0416667)  (20, 0)  (21, -1.33333)  (22, -0.0833333)  (43, 0)  (44, 0)  (45, 0)  (46, 0)  (55, 0)  (56, -1.33333)  (61, 0)  (62, 5.33333) 
Residual:
Vec Object: 1 MPI processes
  type: seq
0
0
-0.0208333
0
0
-0.21875
0
0
-0.0520833
0
0
-0.119792
0
0
0
0
0
0.494792
0
0
-0.15625
0
0
-0.15625
0
0
0.229167
0.166667
0.166667
-0.015625
0.833333
-0.166667
-0.078125
0.833333
1.16667
-0.00520833
1.5
0.166667
0.0989583
-0.0416667
-0.0416667
-0.291667
0.125
0
0
-3.375
0.625
0
0
-0.958333
0.125
0.125
0.125
0.125
0.125
-3.375
-6.04167
0
0
-2.95833
-3.20833
-0.958333
-2.04167
0
0
-3.625
-1.875
0
0
-6.70833
-0.0416667
0.125
0.125
0.125
0.125
-2.95833
1.29167
0
0
0.125
0.125
-0.291667
-0.708333
0
0
0.125
0.125
0.125
0.125
0.125
0.125
-3.625
1.29167
0
0
Au - b = Au + F(0)
Vec Object: 1 MPI processes
  type: seq
0
0
0
0
0
0
0
0
0
0
0
0
0
0
0
0
0
0
0
0
0
0
0
0
0
0
0
0
0
0
0
0
0
0
0
0
0
0
0
0
0
0
0
0
0
0
0
0
0
0
0
0
0
0
0
0
0
0
0
0
0
0
0
Linear L_2 Residual: 0
